================================================================================
                                                 ___
 .-.                                            (   )
( __)  ___ .-.    ___  ___    .--.    ___ .-.    | |_       .--.    ___ .-.     ___  ___
(''") (   )   \  (   )(   )  /    \  (   )   \  (   __)    /    \  (   )   \   (   )(   )
 | |   |  .-. .   | |  | |  |  .-. ;  |  .-. .   | |      |  .-. ;  | ' .-. ;   | |  | |
 | |   | |  | |   | |  | |  |  | | |  | |  | |   | | ___  | |  | |  |  / (___)  | |  | |
 | |   | |  | |   | |  | |  |  |/  |  | |  | |   | |(   ) | |  | |  | |         | '  | |
 | |   | |  | |   | |  | |  |  ' _.'  | |  | |   | | | |  | |  | |  | |         '  `-' |
 | |   | |  | |   ' '  ; '  |  .'.-.  | |  | |   | ' | |  | '  | |  | |          `.__. |
 | |   | |  | |    \ `' /   '  `-' /  | |  | |   ' `-' ;  '  `-' /  | |          ___ | |
(___) (___)(___)    '_.'     `.__.'  (___)(___)   `.__.    `.__.'  (___)        (   )' |
                                                                                 ; `-' '
                                                                                  .__.'

                                             .-.
    .--.      .--.    ___ .-.     ___  ___  ( __)   .--.      .--.
  /  _  \    /    \  (   )   \   (   )(   ) (''")  /    \    /    \
 . .' `. ;  |  .-. ;  | ' .-. ;   | |  | |   | |  |  .-. ;  |  .-. ;
 | '   | |  |  | | |  |  / (___)  | |  | |   | |  |  |(___) |  | | |
 _\_`.(___) |  |/  |  | |         | |  | |   | |  |  |      |  |/  |
(   ). '.   |  ' _.'  | |         | |  | |   | |  |  | ___  |  ' _.'
 | |  `\ |  |  .'.-.  | |         ' '  ; '   | |  |  '(   ) |  .'.-.
 ; '._,' '  '  `-' /  | |          \ `' /    | |  '  `-' |  '  `-' /
  '.___.'    `.__.'  (___)          '_.'    (___)  `.__,'    `.__.'

================================================================================

